{"success":true,"statusCode":200,"data":{"pageNumber":1,"pageSize":10,"pageCount":10,"totalItems":109,"items":[{"id":"f2fa847f-74d3-4843-9739-019e18184b91","code":"NN-GYU911","title":"Bodega en renta en El Tajito, Torreón, Coahuila de Zaragoza","category":"Commercial","categoryText":"Comercial","type":"Warehouse","typeText":"Bodega","operation":["Rent"],"operationText":"Renta","commissionText":"","sharedCommissionText":"","rentPrice":92800,"priceText":"92,800 MXN Renta","bedrooms":0,"bedroomsText":"","bathrooms":0,"bathroomsText":"","fullBathrooms":0,"fullBathroomsText":"","halfBathrooms":0,"halfBathroomsText":"","parkingSpaces":0,"parkingSpacesText":"","constructionSize":1152,"constructionSizeText":"1,152 m²","lotSize":1152,"lotSizeText":"1,152 m²","ageText":"-","yearBuiltText":"-","levels":0,"isExclusive":false,"tags":[],"countryId":1,"stateId":7,"municipalityId":252,"settlementId":179799,"country":"México","state":"Coahuila de Zaragoza","municipality":"Torreón","settlement":"El Tajito","location":"El Tajito, Torreón, Coahuila de Zaragoza","postalCode":"27100","lat":25.575236200,"lon":-103.424002100,"assignToId":"530a9747-ba7d-49d8-96de-018fe985a554","assignTo":"NEAR REAL ESTATE ","assignToAt":"2026-05-11T11:31:45.63","assignToDays":10,"assignToDaysText":"10d","pictures":["https://s3.amazonaws.com/nocnok-img/pp-260511113608-a8ec7be70de246c88ed24ecb7e5ab709.webp","https://s3.amazonaws.com/nocnok-img/pp-260511113608-6944f7ee4a254b4dbf5eb072979bba55.webp","https://s3.amazonaws.com/nocnok-img/pp-260511113608-01fd6236e74149a1b9e19fcf9f719a88.webp"],"siteUrl":"https://diegoalonso15.nocnok.com/propiedad/bodega-en-renta/coahuila-de-zaragoza/torreon/el-tajito-id-nn-gyu911","marketplaceUrl":"https://inmuebles.nocnok.com/propiedad/bodega-en-renta/coahuila-de-zaragoza/torreon/el-tajito-id-nn-gyu911","shareUrl":"https://app.nocnok.com/listings/154940/bodega-en-renta/coahuila-de-zaragoza/torreon/el-tajito-id-nn-gyu911","status":"Published","statusText":"Publicada","statusDate":"2026-05-11T00:00:00","statusDateText":"2026-05-11 00:00","statusDays":11,"statusDaysText":"11d","relevance":100,"renewalDate":"2026-07-10T00:00:00","canBeRenewed":false,"canBeReplublished":false,"shareType":"Network","creationDays":10,"creationDaysText":"10d","integrations":[]},{"id":"ce415399-4ee4-4e92-b28f-019dfeae9575","code":"NN-GYL522","title":"Bodega en renta en La Union, Torreón, Coahuila de Zaragoza","category":"Commercial","categoryText":"Comercial","type":"Warehouse","typeText":"Bodega","operation":["Rent"],"operationText":"Renta","commissionText":"","sharedCommissionText":"","rentPrice":21500,"priceText":"21,500 MXN Renta","bedrooms":0,"bedroomsText":"","bathrooms":2,"bathroomsText":"2","fullBathrooms":0,"fullBathroomsText":"","halfBathrooms":2,"halfBathroomsText":"2","parkingSpaces":3,"parkingSpacesText":"3","constructionSize":300,"constructionSizeText":"300 m²","lotSize":300,"lotSizeText":"300 m²","ageText":"-","yearBuiltText":"-","levels":1,"isExclusive":false,"tags":[],"countryId":1,"stateId":7,"municipalityId":252,"settlementId":179939,"country":"México","state":"Coahuila de Zaragoza","municipality":"Torreón","settlement":"La Union","location":"La Union, Torreón, Coahuila de Zaragoza","postalCode":"27108","lat":25.598794700,"lon":-103.405666700,"assignToId":"530a9747-ba7d-49d8-96de-018fe985a554","assignTo":"NEAR REAL ESTATE ","assignToAt":"2026-05-06T13:05:47.48","assignToDays":15,"assignToDaysText":"15d","pictures":["https://s3.amazonaws.com/nocnok-img/pp-260506130604-eb48b41c68a947dc83d7ed85ca988e13.webp","https://s3.amazonaws.com/nocnok-img/pp-260506130604-dcfbb29329744c089cc58693f4e8df48.webp","https://s3.amazonaws.com/nocnok-img/pp-260506130602-cb875507beaa4693a5d7652803f59196.webp","https://s3.amazonaws.com/nocnok-img/pp-260506130604-576dfd6aca314ec1b479c4fe274d7dbc.webp"],"siteUrl":"https://diegoalonso15.nocnok.com/propiedad/bodega-en-renta/coahuila-de-zaragoza/torreon/la-union-id-nn-gyl522","marketplaceUrl":"https://inmuebles.nocnok.com/propiedad/bodega-en-renta/coahuila-de-zaragoza/torreon/la-union-id-nn-gyl522","shareUrl":"https://app.nocnok.com/listings/154940/bodega-en-renta/coahuila-de-zaragoza/torreon/la-union-id-nn-gyl522","status":"Published","statusText":"Publicada","statusDate":"2026-05-06T00:00:00","statusDateText":"2026-05-06 00:00","statusDays":16,"statusDaysText":"16d","relevance":100,"renewalDate":"2026-07-05T00:00:00","canBeRenewed":false,"canBeReplublished":false,"shareType":"Network","creationDays":15,"creationDaysText":"15d","integrations":[]},{"id":"7baf7074-a02a-4bde-9e15-019df9734062","code":"NN-GYK983","title":"Bodega en renta en El Tajito, Torreón, Coahuila de Zaragoza","category":"Commercial","categoryText":"Comercial","type":"Warehouse","typeText":"Bodega","operation":["Rent"],"operationText":"Renta","commissionText":"","sharedCommissionText":"","rentPrice":90000,"priceText":"90,000 MXN Renta","bedrooms":0,"bedroomsText":"","bathrooms":0,"bathroomsText":"","fullBathrooms":0,"fullBathroomsText":"","halfBathrooms":0,"halfBathroomsText":"","parkingSpaces":6,"parkingSpacesText":"6","constructionSize":1200,"constructionSizeText":"1,200 m²","lotSize":1200,"lotSizeText":"1,200 m²","ageText":"-","yearBuiltText":"-","levels":0,"isExclusive":false,"tags":[],"countryId":1,"stateId":7,"municipalityId":252,"settlementId":179799,"country":"México","state":"Coahuila de Zaragoza","municipality":"Torreón","settlement":"El Tajito","location":"El Tajito, Torreón, Coahuila de Zaragoza","postalCode":"27100","lat":25.575236200,"lon":-103.424002100,"assignToId":"530a9747-ba7d-49d8-96de-018fe985a554","assignTo":"NEAR REAL ESTATE ","assignToAt":"2026-05-05T12:42:53","assignToDays":16,"assignToDaysText":"16d","pictures":["https://s3.amazonaws.com/nocnok-img/pp-260505124309-7acb2cbb50c240e984d08bb2520fa8ed.webp","https://s3.amazonaws.com/nocnok-img/pp-260505124309-c07b240f13da4a728ddcae9e6ccae628.webp","https://s3.amazonaws.com/nocnok-img/pp-260505124307-64e3dd021b4d4bfc9e8361adb6b94c0c.webp","https://s3.amazonaws.com/nocnok-img/pp-260505124306-42417b60884f430290494dfe70117ab9.webp","https://s3.amazonaws.com/nocnok-img/pp-260505124306-28554a7de4b847c3a7eaea34ab40896c.webp","https://s3.amazonaws.com/nocnok-img/pp-260505124307-3e1665e71a1f4be5a93a2ba679909065.webp","https://s3.amazonaws.com/nocnok-img/pp-260505124306-610f8929bff747118e16ff7cb82d03a6.webp","https://s3.amazonaws.com/nocnok-img/pp-260505124307-efc8a807161e44f0969f4f49d39e62be.webp","https://s3.amazonaws.com/nocnok-img/pp-260505124307-6cd51cb9dcc94c01a3f48a7eac1b5107.webp","https://s3.amazonaws.com/nocnok-img/pp-260505124307-58fd39d32ac14371ae3f921ebd1ff2d3.webp"],"siteUrl":"https://diegoalonso15.nocnok.com/propiedad/bodega-en-renta/coahuila-de-zaragoza/torreon/el-tajito-id-nn-gyk983","marketplaceUrl":"https://inmuebles.nocnok.com/propiedad/bodega-en-renta/coahuila-de-zaragoza/torreon/el-tajito-id-nn-gyk983","shareUrl":"https://app.nocnok.com/listings/154940/bodega-en-renta/coahuila-de-zaragoza/torreon/el-tajito-id-nn-gyk983","status":"Published","statusText":"Publicada","statusDate":"2026-05-05T00:00:00","statusDateText":"2026-05-05 00:00","statusDays":17,"statusDaysText":"17d","relevance":100,"renewalDate":"2026-07-04T00:00:00","canBeRenewed":false,"canBeReplublished":false,"shareType":"Network","creationDays":16,"creationDaysText":"16d","integrations":[]},{"id":"dd8691a1-5037-4f6f-8d07-019d2b281247","code":"NN-GWN907","title":"Bodega en renta en Las Arboledas, Torreón, Coahuila de Zaragoza","category":"Commercial","categoryText":"Comercial","type":"Warehouse","typeText":"Bodega","operation":["Rent"],"operationText":"Renta","commissionText":"","sharedCommissionText":"","rentPrice":65520,"priceText":"65,520 MXN Renta","bedrooms":0,"bedroomsText":"","bathrooms":0,"bathroomsText":"","fullBathrooms":0,"fullBathroomsText":"","halfBathrooms":0,"halfBathroomsText":"","parkingSpaces":0,"parkingSpacesText":"","constructionSize":819,"constructionSizeText":"819 m²","lotSize":819,"lotSizeText":"819 m²","ageText":"-","yearBuiltText":"-","levels":0,"isExclusive":false,"tags":[],"countryId":1,"stateId":7,"municipalityId":252,"settlementId":270371,"country":"México","state":"Coahuila de Zaragoza","municipality":"Torreón","settlement":"Las Arboledas","location":"Las Arboledas, Torreón, Coahuila de Zaragoza","postalCode":"27084","lat":25.539592600,"lon":-103.370511800,"assignToId":"530a9747-ba7d-49d8-96de-018fe985a554","assignTo":"NEAR REAL ESTATE ","assignToAt":"2026-03-26T11:18:59.5","assignToDays":56,"assignToDaysText":"56d","pictures":["https://s3.amazonaws.com/nocnok-img/pp-260326111923-09c9c7312eb640de85a4dc483a5fd6d3.webp","https://s3.amazonaws.com/nocnok-img/pp-260326111922-dce4c8f5f99246748377e134f7d75255.webp"],"siteUrl":"https://diegoalonso15.nocnok.com/propiedad/bodega-en-renta/coahuila-de-zaragoza/torreon/las-arboledas-id-nn-gwn907","marketplaceUrl":"https://inmuebles.nocnok.com/propiedad/bodega-en-renta/coahuila-de-zaragoza/torreon/las-arboledas-id-nn-gwn907","shareUrl":"https://app.nocnok.com/listings/154940/bodega-en-renta/coahuila-de-zaragoza/torreon/las-arboledas-id-nn-gwn907","status":"Finished","statusText":"Rentada","statusDate":"2026-05-05T00:00:00","statusDateText":"2026-05-05 00:00","statusDays":17,"statusDaysText":"17d","relevance":100,"renewalDate":"2026-05-25T00:00:00","canBeRenewed":false,"canBeReplublished":true,"shareType":"Network","creationDays":56,"creationDaysText":"56d","integrations":[]},{"id":"a40b5e15-9787-4916-89a7-019d2b25524c","code":"NN-GWN903","title":"Bodega en renta en Las Arboledas, Torreón, Coahuila de Zaragoza","category":"Commercial","categoryText":"Comercial","type":"Warehouse","typeText":"Bodega","operation":["Rent"],"operationText":"Renta","commissionText":"","sharedCommissionText":"","rentPrice":43680,"priceText":"43,680 MXN Renta","bedrooms":0,"bedroomsText":"","bathrooms":0,"bathroomsText":"","fullBathrooms":0,"fullBathroomsText":"","halfBathrooms":0,"halfBathroomsText":"","parkingSpaces":0,"parkingSpacesText":"","constructionSize":546,"constructionSizeText":"546 m²","lotSize":546,"lotSizeText":"546 m²","ageText":"-","yearBuiltText":"-","levels":0,"isExclusive":false,"tags":[],"countryId":1,"stateId":7,"municipalityId":252,"settlementId":270371,"country":"México","state":"Coahuila de Zaragoza","municipality":"Torreón","settlement":"Las Arboledas","location":"Las Arboledas, Torreón, Coahuila de Zaragoza","postalCode":"27084","lat":25.539592600,"lon":-103.370511800,"assignToId":"530a9747-ba7d-49d8-96de-018fe985a554","assignTo":"NEAR REAL ESTATE ","assignToAt":"2026-03-26T11:15:59.14","assignToDays":56,"assignToDaysText":"56d","pictures":["https://s3.amazonaws.com/nocnok-img/pp-260326111623-3c95befc4e164463aa0d0ddd9803b832.webp","https://s3.amazonaws.com/nocnok-img/pp-260326111622-6c897f4d5b8c4c40b536f553d2fa1f3e.webp"],"siteUrl":"https://diegoalonso15.nocnok.com/propiedad/bodega-en-renta/coahuila-de-zaragoza/torreon/las-arboledas-id-nn-gwn903","marketplaceUrl":"https://inmuebles.nocnok.com/propiedad/bodega-en-renta/coahuila-de-zaragoza/torreon/las-arboledas-id-nn-gwn903","shareUrl":"https://app.nocnok.com/listings/154940/bodega-en-renta/coahuila-de-zaragoza/torreon/las-arboledas-id-nn-gwn903","status":"Finished","statusText":"Rentada","statusDate":"2026-05-05T00:00:00","statusDateText":"2026-05-05 00:00","statusDays":17,"statusDaysText":"17d","relevance":100,"renewalDate":"2026-05-25T00:00:00","canBeRenewed":false,"canBeReplublished":true,"shareType":"Network","creationDays":56,"creationDaysText":"56d","integrations":[]},{"id":"05e038be-d7bd-4f8b-816f-019cd8fc8a9a","code":"NN-GWD742","title":"Bodega en renta en Las Arboledas, Torreón, Coahuila de Zaragoza","category":"Commercial","categoryText":"Comercial","type":"Warehouse","typeText":"Bodega","operation":["Rent"],"operationText":"Renta","commissionText":"","sharedCommissionText":"","rentPrice":21840,"priceText":"21,840 MXN Renta","bedrooms":0,"bedroomsText":"","bathrooms":6,"bathroomsText":"6","fullBathrooms":0,"fullBathroomsText":"","halfBathrooms":6,"halfBathroomsText":"6","parkingSpaces":0,"parkingSpacesText":"","constructionSize":273,"constructionSizeText":"273 m²","lotSize":273,"lotSizeText":"273 m²","ageText":"-","yearBuiltText":"-","levels":2,"isExclusive":false,"tags":[],"countryId":1,"stateId":7,"municipalityId":252,"settlementId":270371,"country":"México","state":"Coahuila de Zaragoza","municipality":"Torreón","settlement":"Las Arboledas","location":"Las Arboledas, Torreón, Coahuila de Zaragoza","postalCode":"27084","lat":25.578048700,"lon":-103.394650000,"assignToId":"530a9747-ba7d-49d8-96de-018fe985a554","assignTo":"NEAR REAL ESTATE ","assignToAt":"2026-03-10T12:22:35.013","assignToDays":72,"assignToDaysText":"72d","pictures":["https://s3.amazonaws.com/nocnok-img/pp-260310122253-eea7750649d546bb9ef53bc3375929f5.webp","https://s3.amazonaws.com/nocnok-img/pp-260310122252-589cbc14df8849a98b3644fe58ff1621.webp"],"siteUrl":"https://diegoalonso15.nocnok.com/propiedad/bodega-en-renta/coahuila-de-zaragoza/torreon/las-arboledas-id-nn-gwd742","marketplaceUrl":"https://inmuebles.nocnok.com/propiedad/bodega-en-renta/coahuila-de-zaragoza/torreon/las-arboledas-id-nn-gwd742","shareUrl":"https://app.nocnok.com/listings/154940/bodega-en-renta/coahuila-de-zaragoza/torreon/las-arboledas-id-nn-gwd742","status":"Finished","statusText":"Rentada","statusDate":"2026-05-05T00:00:00","statusDateText":"2026-05-05 00:00","statusDays":17,"statusDaysText":"17d","relevance":100,"renewalDate":"2026-05-09T00:00:00","canBeRenewed":false,"canBeReplublished":true,"shareType":"Network","creationDays":72,"creationDaysText":"72d","integrations":[]},{"id":"d69795eb-f62c-4770-a3fc-019bbec9d585","code":"NN-GQS110","title":"Bodega en renta en La Union, Torreón, Coahuila de Zaragoza","category":"Commercial","categoryText":"Comercial","type":"Warehouse","typeText":"Bodega","operation":["Rent"],"operationText":"Renta","commissionText":"","sharedCommissionText":"","rentPrice":19500,"priceText":"19,500 MXN Renta","bedrooms":0,"bedroomsText":"","bathrooms":0,"bathroomsText":"","fullBathrooms":0,"fullBathroomsText":"","halfBathrooms":0,"halfBathroomsText":"","parkingSpaces":0,"parkingSpacesText":"","constructionSize":300,"constructionSizeText":"300 m²","lotSize":300,"lotSizeText":"300 m²","ageText":"-","yearBuiltText":"-","levels":0,"isExclusive":false,"tags":[],"countryId":1,"stateId":7,"municipalityId":252,"settlementId":179939,"country":"México","state":"Coahuila de Zaragoza","municipality":"Torreón","settlement":"La Union","location":"La Union, Torreón, Coahuila de Zaragoza","postalCode":"27108","lat":25.598794700,"lon":-103.405666700,"assignToId":"530a9747-ba7d-49d8-96de-018fe985a554","assignTo":"NEAR REAL ESTATE ","assignToAt":"2026-01-14T17:14:16.933","assignToDays":127,"assignToDaysText":"127d","pictures":["https://s3.amazonaws.com/nocnok-img/pp-260114171436-ffa13de038ce4daa9a47904fe8574d1d.webp","https://s3.amazonaws.com/nocnok-img/pp-260114171436-708f73f3b0e34194af8430a7c58299bc.webp","https://s3.amazonaws.com/nocnok-img/pp-260114171437-1afaf150e03946109620da67c7d24053.webp","https://s3.amazonaws.com/nocnok-img/pp-260114171436-2ed23c97bd6248599892c8559a7ea09d.webp","https://s3.amazonaws.com/nocnok-img/pp-260114171436-1f1b43853a5d4db296db7fc2863bdd90.webp"],"siteUrl":"https://diegoalonso15.nocnok.com/propiedad/bodega-en-renta/coahuila-de-zaragoza/torreon/la-union-id-nn-gqs110","marketplaceUrl":"https://inmuebles.nocnok.com/propiedad/bodega-en-renta/coahuila-de-zaragoza/torreon/la-union-id-nn-gqs110","shareUrl":"https://app.nocnok.com/listings/154940/bodega-en-renta/coahuila-de-zaragoza/torreon/la-union-id-nn-gqs110","status":"Published","statusText":"Publicada","statusDate":"2026-01-14T00:00:00","statusDateText":"2026-01-14 00:00","statusDays":128,"statusDaysText":"128d","relevance":100,"renewalDate":"2026-03-15T00:00:00","canBeRenewed":true,"canBeReplublished":false,"shareType":"Network","creationDays":127,"creationDaysText":"127d","integrations":[]},{"id":"e1056bbe-864c-420a-b321-019bb32d9153","code":"NN-GQL191","title":"Bodega en renta en El Tajito, Torreón, Coahuila de Zaragoza","category":"Industrial","categoryText":"Industrial","type":"Warehouse","typeText":"Bodega","operation":["Rent"],"operationText":"Renta","commissionText":"","sharedCommissionText":"","rentPrice":92800,"priceText":"92,800 MXN Renta","bedrooms":0,"bedroomsText":"","bathrooms":0,"bathroomsText":"","fullBathrooms":0,"fullBathroomsText":"","halfBathrooms":0,"halfBathroomsText":"","parkingSpaces":8,"parkingSpacesText":"8","constructionSize":1013,"constructionSizeText":"1,013 m²","lotSize":1152,"lotSizeText":"1,152 m²","ageText":"1","yearBuiltText":"2025","levels":1,"isExclusive":false,"tags":[],"countryId":1,"stateId":7,"municipalityId":252,"settlementId":179799,"country":"México","state":"Coahuila de Zaragoza","municipality":"Torreón","settlement":"El Tajito","location":"El Tajito, Torreón, Coahuila de Zaragoza","postalCode":"27100","lat":25.574961100,"lon":-103.420159000,"assignToId":"530a9747-ba7d-49d8-96de-018fe985a554","assignTo":"NEAR REAL ESTATE ","assignToAt":"2026-01-12T11:07:46.497","assignToDays":129,"assignToDaysText":"129d","pictures":["https://s3.amazonaws.com/nocnok-img/pp-260219110036-504550e90d8b44b092e648a52a6687ed.webp","https://s3.amazonaws.com/nocnok-img/pp-260219110039-0fe6717ad1a247f8958323536050c2f8.webp","https://s3.amazonaws.com/nocnok-img/pp-260219110038-9c287a125ebb4829b5facc21ef035c05.webp","https://s3.amazonaws.com/nocnok-img/pp-260219110038-82ee855c2541461f810ca6fdacab3812.webp"],"siteUrl":"https://diegoalonso15.nocnok.com/propiedad/bodega-en-renta/coahuila-de-zaragoza/torreon/el-tajito-id-nn-gql191","marketplaceUrl":"https://inmuebles.nocnok.com/propiedad/bodega-en-renta/coahuila-de-zaragoza/torreon/el-tajito-id-nn-gql191","shareUrl":"https://app.nocnok.com/listings/154940/bodega-en-renta/coahuila-de-zaragoza/torreon/el-tajito-id-nn-gql191","status":"Published","statusText":"Publicada","statusDate":"2026-01-12T00:00:00","statusDateText":"2026-01-12 00:00","statusDays":130,"statusDaysText":"130d","relevance":100,"renewalDate":"2026-03-13T00:00:00","canBeRenewed":true,"canBeReplublished":false,"shareType":"Network","creationDays":129,"creationDaysText":"129d","integrations":[]},{"id":"e5d48257-a119-4d7d-b851-019bb2fcc449","code":"NN-GQL162","title":"Bodega en renta en El Tajito, Torreón, Coahuila de Zaragoza","category":"Commercial","categoryText":"Comercial","type":"Warehouse","typeText":"Bodega","operation":["Rent"],"operationText":"Renta","commissionText":"","sharedCommissionText":"","rentPrice":39000,"priceText":"39,000 MXN Renta","bedrooms":0,"bedroomsText":"","bathrooms":4,"bathroomsText":"4","fullBathrooms":0,"fullBathroomsText":"","halfBathrooms":4,"halfBathroomsText":"4","parkingSpaces":5,"parkingSpacesText":"5","constructionSize":750,"constructionSizeText":"750 m²","lotSize":750,"lotSizeText":"750 m²","ageText":"-","yearBuiltText":"-","levels":2,"isExclusive":false,"tags":[],"countryId":1,"stateId":7,"municipalityId":252,"settlementId":344556,"country":"México","state":"Coahuila de Zaragoza","municipality":"Torreón","settlement":"El Tajito","location":"El Tajito, Torreón, Coahuila de Zaragoza","postalCode":"27104","lat":25.574961100,"lon":-103.420159000,"assignToId":"530a9747-ba7d-49d8-96de-018fe985a554","assignTo":"NEAR REAL ESTATE ","assignToAt":"2026-01-12T10:14:28.16","assignToDays":129,"assignToDaysText":"129d","pictures":["https://s3.amazonaws.com/nocnok-img/pp-260112101516-9f2c8d46583f4d9b814480a492be3757.webp","https://s3.amazonaws.com/nocnok-img/pp-260112101515-b767320eb5b140f3b17fa26a2a340da3.webp","https://s3.amazonaws.com/nocnok-img/pp-260112101515-2b1ab16c77c241eca89660d59f1c3e21.webp","https://s3.amazonaws.com/nocnok-img/pp-260112101514-f712246d7d2e47e4aa2c89849b66c836.webp","https://s3.amazonaws.com/nocnok-img/pp-260112101513-9372068dddb5436783aa32e5c8c25dbf.webp","https://s3.amazonaws.com/nocnok-img/pp-260112101514-63dcfd739b244a92ab3c63ac89e0ec88.webp","https://s3.amazonaws.com/nocnok-img/pp-260112101515-20771ff9faeb4b4b803eea03c0590816.webp","https://s3.amazonaws.com/nocnok-img/pp-260112101512-410bd009021d43cb853d45833bad71be.webp"],"siteUrl":"https://diegoalonso15.nocnok.com/propiedad/bodega-en-renta/coahuila-de-zaragoza/torreon/el-tajito-id-nn-gql162","marketplaceUrl":"https://inmuebles.nocnok.com/propiedad/bodega-en-renta/coahuila-de-zaragoza/torreon/el-tajito-id-nn-gql162","shareUrl":"https://app.nocnok.com/listings/154940/bodega-en-renta/coahuila-de-zaragoza/torreon/el-tajito-id-nn-gql162","status":"Published","statusText":"Publicada","statusDate":"2026-01-12T00:00:00","statusDateText":"2026-01-12 00:00","statusDays":130,"statusDaysText":"130d","relevance":100,"renewalDate":"2026-03-13T00:00:00","canBeRenewed":true,"canBeReplublished":false,"shareType":"Network","creationDays":129,"creationDaysText":"129d","integrations":[]},{"id":"21fb90a7-ab2a-4434-960f-019b99cdfe4f","code":"NN-GQD505","title":"Bodega en renta en El Tajito, Torreón, Coahuila de Zaragoza","category":"Industrial","categoryText":"Industrial","type":"Warehouse","typeText":"Bodega","operation":["Rent"],"operationText":"Renta","commissionText":"","sharedCommissionText":"","rentPrice":65950,"priceText":"65,950 MXN Renta","bedrooms":0,"bedroomsText":"","bathrooms":0,"bathroomsText":"","fullBathrooms":0,"fullBathroomsText":"","halfBathrooms":0,"halfBathroomsText":"","parkingSpaces":0,"parkingSpacesText":"","constructionSize":727,"constructionSizeText":"727 m²","lotSize":942,"lotSizeText":"942 m²","ageText":"1","yearBuiltText":"2025","levels":0,"isExclusive":false,"tags":[],"countryId":1,"stateId":7,"municipalityId":252,"settlementId":179799,"country":"México","state":"Coahuila de Zaragoza","municipality":"Torreón","settlement":"El Tajito","location":"El Tajito, Torreón, Coahuila de Zaragoza","postalCode":"27100","lat":25.575236200,"lon":-103.424002100,"assignToId":"530a9747-ba7d-49d8-96de-018fe985a554","assignTo":"NEAR REAL ESTATE ","assignToAt":"2026-01-07T12:52:52.543","assignToDays":134,"assignToDaysText":"134d","pictures":["https://s3.amazonaws.com/nocnok-img/pp-260107125303-86e39d2508a94fdd9aa92bd6aa6580fb.webp","https://s3.amazonaws.com/nocnok-img/pp-260107125303-e816111f39cd43e8b32bc8455178e50c.webp"],"siteUrl":"https://diegoalonso15.nocnok.com/propiedad/bodega-en-renta/coahuila-de-zaragoza/torreon/el-tajito-id-nn-gqd505","marketplaceUrl":"https://inmuebles.nocnok.com/propiedad/bodega-en-renta/coahuila-de-zaragoza/torreon/el-tajito-id-nn-gqd505","shareUrl":"https://app.nocnok.com/listings/154940/bodega-en-renta/coahuila-de-zaragoza/torreon/el-tajito-id-nn-gqd505","status":"Finished","statusText":"Rentada","statusDate":"2026-02-19T00:00:00","statusDateText":"2026-02-19 00:00","statusDays":92,"statusDaysText":"92d","relevance":100,"renewalDate":"2026-03-08T00:00:00","canBeRenewed":false,"canBeReplublished":true,"shareType":"Network","creationDays":134,"creationDaysText":"134d","integrations":[]}]}}